{
  "project_info": {
    "project_number": "991126329318",
    "firebase_url": "https://geoq-668bb.firebaseio.com",
    "project_id": "geoq-668bb",
    "storage_bucket": "geoq-668bb.appspot.com"
  },
  "client": [
    {
      "client_info": {
        "mobilesdk_app_id": "1:991126329318:android:aecea4c1d2e031d0ab6827",
        "android_client_info": {
          "package_name": "com.rishat.shamsutdinov.teachup"
        }
      },
      "oauth_client": [
        {
          "client_id": "991126329318-teg0cpntn2cqgfmek72b2o5t87tvctcs.apps.googleusercontent.com",
          "client_type": 3
        }
      ],
      "api_key": [
        {
          "current_key": "AIzaSyBZd3_lYQkJHoNasoZMFdK7WvKhzypo_a8"
        }
      ],
      "services": {
        "appinvite_service": {
          "other_platform_oauth_client": [
            {
              "client_id": "991126329318-teg0cpntn2cqgfmek72b2o5t87tvctcs.apps.googleusercontent.com",
              "client_type": 3
            }
          ]
        }
      }
    }
  ],
  "configuration_version": "1"
}